<?xml version="1.0" encoding="UTF-8"?>
<svg width="30px" height="30px" viewBox="0 0 30 30" version="1.1" xmlns="http://www.w3.org/2000/svg" xmlns:xlink="http://www.w3.org/1999/xlink">
    <title>F798E1F9-DBA8-44AD-BF97-FAD643848657@0.5x</title>
    <g id="Page-1" stroke="none" stroke-width="1" fill="none" fill-rule="evenodd">
        <g id="07.-Hubungi-Kami" transform="translate(-98.000000, -1164.000000)">
            <g id="Group-8" transform="translate(98.000000, 1164.000000)">
                <rect id="Rectangle" fill="#F78200" x="0" y="0" width="30" height="30" rx="5"></rect>
                <g id="customer-service" transform="translate(6.000000, 5.000000)" fill="#FFFFFF" fill-rule="nonzero">
                    <path d="M14.5466957,12.914913 C13.7552174,14.0019565 12.4731304,14.7099565 11.0286087,14.7099565 L9.00173913,14.7099565 C8.30156522,14.7099565 7.70530435,14.2654348 7.47952174,13.6432609 C7.20082609,13.5601304 6.92752174,13.4522174 6.66082609,13.3196957 C6.09604348,13.039087 5.58321739,12.658913 5.13178261,12.1879565 C2.20352174,12.8312609 0.0119130435,15.4404783 0.0119130435,18.562 L0.0119130435,18.97 C0.0119130435,19.5308696 0.466608696,19.9855652 1.02747826,19.9855652 L16.7841304,19.9855652 C17.345,19.9855652 17.7996957,19.5308696 17.7996957,18.97 L17.7996957,18.562 C17.7996957,16.1506087 16.4916957,14.0448696 14.5466957,12.914913 Z" id="Path"></path>
                    <path d="M4.0523913,10.0946957 C4.48886957,10.0946957 4.86878261,9.85278261 5.0656087,9.49578261 C5.07078261,9.50991304 5.07604348,9.52395652 5.08134783,9.538 C5.08291304,9.54221739 5.08447826,9.54643478 5.08604348,9.55065217 C5.54778261,10.7660435 6.44621739,11.784913 7.63091304,12.230087 C7.91743478,11.7748261 8.42408696,11.4720435 9.00178261,11.4720435 L11.0286522,11.4720435 C11.2308261,11.4720435 11.419,11.415 11.5839565,11.3227826 C11.861,11.1678696 12.1101304,10.7748696 12.2387826,10.5665652 C12.4446522,10.2332174 12.6041739,9.88013043 12.7456087,9.49517391 C12.825087,9.63952174 12.9343913,9.76508696 13.0653478,9.86347826 L13.0653478,10.3604783 C13.0653478,11.4835217 12.1516957,12.3972174 11.0286087,12.3972174 L9.00173913,12.3972174 C8.61856522,12.3972174 8.30791304,12.7078696 8.30791304,13.0910435 C8.30791304,13.4742609 8.61856522,13.7848696 9.00173913,13.7848696 L11.0286087,13.7848696 C12.9168261,13.7848696 14.453,12.2486957 14.453,10.3604783 L14.453,9.86347826 C14.7338696,9.65247826 14.9155652,9.31665217 14.9155652,8.93834783 L14.9155652,6.84621739 L14.9155652,6.04395652 C14.9155652,5.65786957 14.7262174,5.31626087 14.4354783,5.10621739 C14.21,2.25286957 11.816087,0 8.90578261,0 C5.99543478,0 3.60156522,2.25286957 3.37608696,5.10617391 C3.08534783,5.31621739 2.896,5.65786957 2.896,6.04391304 L2.896,8.93826087 C2.896,9.57873913 3.41630435,10.0946957 4.0523913,10.0946957 Z M8.90578261,1.38769565 C11.0602174,1.38769565 12.8372174,3.03413043 13.044913,5.13486957 C12.9085652,5.24213043 12.7968696,5.37921739 12.719913,5.53652174 C12.0652174,3.82843478 10.6037391,2.63921739 8.90573913,2.63921739 C7.17113043,2.63921739 5.73308696,3.86930435 5.09413043,5.52969565 C5.09326087,5.53195652 5.09243478,5.53426087 5.09156522,5.53656522 C5.0146087,5.37926087 4.90291304,5.24217391 4.76656522,5.13491304 C4.9743913,3.03413043 6.75134783,1.38769565 8.90578261,1.38769565 Z" id="Shape"></path>
                </g>
            </g>
        </g>
    </g>
</svg>